<svg width="86" height="12" viewBox="0 0 86 12" fill="none" xmlns="http://www.w3.org/2000/svg">
<path d="M8.06074 0.924069L12.2903 4.54728L10.8863 9.62464L5.25442 11.0788L1.02647 7.45702L2.43043 2.37966L8.06074 0.924069ZM8.31455 0L7.80694 0.124642L2.17181 1.58739L1.66259 1.7192L1.52765 2.18052L0.128509 7.25931L0 7.71776L0.385528 8.04728L4.61509 11.6705L5.00062 12L5.50823 11.8725L11.1418 10.414L11.651 10.2822L11.7795 9.81948L13.1834 4.74212L13.3152 4.27937L12.9296 3.94986L8.70168 0.32808L8.31455 0Z" fill="white"/>
<path d="M23.1396 9.15052C22.8744 9.30986 22.5744 9.41728 22.2593 9.46571C21.898 9.53 21.5305 9.56216 21.1621 9.5617C20.7251 9.56337 20.2907 9.49994 19.8771 9.37402C19.4675 9.24917 19.0966 9.04009 18.7944 8.7637C18.4626 8.45251 18.21 8.08111 18.0538 7.67488C17.8568 7.15223 17.7639 6.60288 17.7791 6.05167C17.7609 5.48515 17.8656 4.92083 18.0876 4.38978C18.2643 3.98245 18.5384 3.61432 18.8907 3.31098C19.2039 3.04601 19.5784 2.8455 19.9879 2.72359C20.3798 2.60627 20.7905 2.54628 21.2039 2.54594C21.5715 2.5413 21.9388 2.5672 22.3011 2.6233C22.5539 2.6633 22.8018 2.72471 23.0416 2.80668L22.7492 3.92416C22.5606 3.84674 22.3604 3.79414 22.1549 3.768C21.8815 3.73276 21.6054 3.71648 21.3292 3.71929C21.0552 3.71045 20.7826 3.75748 20.5321 3.85678C20.2815 3.95609 20.0597 4.10506 19.8835 4.29236C19.5194 4.6744 19.3373 5.26323 19.3373 6.05883C19.3337 6.37965 19.3774 6.6995 19.4674 7.01012C19.5418 7.2728 19.674 7.51969 19.8562 7.73648C20.031 7.93807 20.2566 8.10005 20.5148 8.20926C20.8024 8.32633 21.116 8.38365 21.432 8.37688C21.7088 8.38241 21.9851 8.35348 22.2529 8.29092C22.4573 8.24002 22.6534 8.16536 22.836 8.06886L23.1396 9.15052Z" fill="white"/>
<path d="M25.5412 6.91968L23.0642 2.68042H24.8312L26.2143 5.21337L26.3653 5.9297H26.4183L26.5789 5.19761L27.9186 2.68329H29.5057L27.0319 6.91251V9.42397H25.5525L25.5412 6.91968Z" fill="white"/>
<path d="M35.483 4.25067C35.4822 4.4188 35.4585 4.58622 35.4123 4.74924C35.3668 4.91303 35.2878 5.06795 35.1794 5.20626C35.0685 5.35061 34.9292 5.47585 34.7682 5.57589C34.5787 5.68856 34.3673 5.76873 34.1449 5.81228V5.87388C34.3545 5.90714 34.5585 5.96394 34.7521 6.04294C34.9394 6.11699 35.1086 6.2231 35.2501 6.35526C35.3987 6.49727 35.5139 6.66435 35.589 6.84666C35.6765 7.06587 35.7184 7.29744 35.7127 7.53004C35.7236 7.84717 35.6381 8.16102 35.4653 8.43835C35.3042 8.6884 35.0791 8.90095 34.8083 9.0587C34.5177 9.22426 34.1978 9.34486 33.8622 9.41543C33.5052 9.49314 33.139 9.5321 32.7715 9.53147H32.3008C32.1102 9.53147 31.9051 9.5267 31.6856 9.51715C31.466 9.5076 31.2427 9.49327 31.0157 9.47417C30.8066 9.45766 30.5989 9.42895 30.394 9.38821V2.72918C30.5306 2.70912 30.688 2.6905 30.8647 2.67188C31.0414 2.65325 31.2294 2.63606 31.4318 2.62316C31.6342 2.61027 31.8398 2.60024 32.0534 2.59451C32.2671 2.58878 32.4759 2.58448 32.6847 2.58448C33.0301 2.58391 33.3749 2.60786 33.716 2.65612C34.0272 2.69852 34.3287 2.7851 34.6092 2.91256C34.8704 3.02856 35.0922 3.20463 35.2517 3.42259C35.4172 3.67279 35.4975 3.96048 35.483 4.25067ZM32.3185 5.51285C32.4197 5.51285 32.5369 5.51285 32.6703 5.50282C32.7778 5.49824 32.8851 5.48868 32.9915 5.47417C33.251 5.40709 33.4922 5.29296 33.6999 5.13892C33.7969 5.06526 33.874 4.97302 33.9255 4.86908C33.9769 4.76514 34.0014 4.65219 33.9971 4.53864C34.0034 4.39589 33.9662 4.2543 33.8895 4.1289C33.8201 4.02283 33.7217 3.93413 33.6036 3.87102C33.4785 3.80557 33.3415 3.76046 33.1988 3.73778C33.0398 3.7114 32.8785 3.69845 32.7168 3.6991C32.5294 3.6991 32.3565 3.70244 32.198 3.70912C32.0749 3.71254 31.9521 3.72211 31.8301 3.73778V5.51285H32.3185ZM32.7875 8.41256C32.9609 8.41273 33.1336 8.39348 33.3016 8.35526C33.4589 8.32055 33.608 8.26086 33.7417 8.17904C33.8699 8.10131 33.9769 7.999 34.055 7.87961C34.1359 7.74809 34.1764 7.5998 34.1722 7.44981C34.1825 7.276 34.1344 7.10339 34.0341 6.95411C33.9436 6.83216 33.819 6.73339 33.6726 6.66758C33.5165 6.59865 33.3479 6.55499 33.1747 6.53864C32.9918 6.51968 32.8078 6.51011 32.6237 6.50998H31.8494V8.35526C31.9045 8.37141 31.9618 8.38104 32.0197 8.38391C32.0968 8.3906 32.1798 8.39537 32.2687 8.39824L32.545 8.40827L32.7875 8.41256Z" fill="white"/>
<path d="M37.0525 2.68042H41.5343V3.84947H38.5352V5.42541H41.266V6.60019H38.5352V8.24775H41.5873V9.42254H37.0525V2.68042Z" fill="white"/>
<path d="M42.9639 2.74366C43.1299 2.71787 43.3082 2.69399 43.4988 2.67202C43.6894 2.65005 43.8806 2.63238 44.0723 2.61901C44.2629 2.6066 44.4482 2.59705 44.6281 2.59036C44.808 2.58367 44.9734 2.58033 45.1244 2.58033C45.4742 2.57973 45.8232 2.60851 46.167 2.66629C46.4903 2.71803 46.8012 2.81934 47.0858 2.96572C47.3532 3.10698 47.5746 3.30795 47.7283 3.54881C47.9006 3.83394 47.9844 4.15494 47.9709 4.47861C47.9951 4.95794 47.8434 5.43123 47.5388 5.82675C47.2509 6.17073 46.8456 6.4221 46.3838 6.54308L46.9059 6.84107L48.6343 9.41987H46.9348L45.2128 6.7852L44.4353 6.66056V9.4256H42.9639V2.74366ZM45.2321 3.75512C45.0811 3.75512 44.9317 3.75512 44.7839 3.76514C44.6692 3.76765 44.5551 3.78061 44.4433 3.80383V5.76371H45.0698C45.4196 5.77981 45.7655 5.6916 46.0529 5.513C46.3003 5.34585 46.424 5.06982 46.424 4.68492C46.4304 4.5597 46.4065 4.43472 46.3538 4.31852C46.3011 4.20231 46.221 4.09761 46.1188 4.01156C45.8677 3.832 45.5498 3.74395 45.2288 3.76514L45.2321 3.75512Z" fill="white"/>
<path d="M54.8028 5.85536L54.2084 4.79519H54.1538L54.3273 5.85536V9.37255H52.9233V2.57886H54.0028L56.8654 6.17198L57.4372 7.20207H57.4902L57.3167 6.17198V2.62757H58.7207V9.41983H57.6396L54.8028 5.85536Z" fill="white"/>
<path d="M60.29 2.62769H64.7734V3.80247H61.7695V5.3784H64.5003V6.55319H61.7695V8.20075H64.8216V9.37267H60.29V2.62769Z" fill="white"/>
<path d="M68.6833 6.59037L68.8777 7.7365H68.9323L69.1491 6.57461L70.5949 2.62476H72.1498L69.3419 9.41988H68.2833L65.4529 2.62762H67.1701L68.6833 6.59037Z" fill="white"/>
<path d="M72.3346 5.99845C72.3346 4.87429 72.612 4.00896 73.1667 3.40247C73.7215 2.79597 74.5134 2.49368 75.5426 2.49559C76.0292 2.48605 76.5122 2.57163 76.9578 2.74631C77.3529 2.90858 77.6975 3.15448 77.9618 3.46264C78.2404 3.79347 78.4424 4.17041 78.5561 4.57152C78.6908 5.03945 78.7561 5.52111 78.7505 6.00419C78.7505 7.12835 78.4715 7.99368 77.9136 8.60017C77.3556 9.20667 76.5653 9.50991 75.5426 9.50991C75.0523 9.52018 74.5654 9.4346 74.1161 9.2592C73.7216 9.09805 73.3782 8.85188 73.1169 8.54287C72.8407 8.21029 72.6404 7.83255 72.5274 7.43112C72.3932 6.96312 72.3284 6.48147 72.3346 5.99845ZM73.8896 5.99845C73.8865 6.31381 73.9188 6.62866 73.986 6.93828C74.0399 7.19643 74.1402 7.4451 74.2832 7.67467C74.4063 7.87071 74.5825 8.03619 74.7956 8.15605C75.0208 8.27532 75.2792 8.33542 75.541 8.3294C75.78 8.3383 76.0177 8.29256 76.2313 8.19652C76.445 8.10049 76.6276 7.95735 76.7618 7.78069C77.0499 7.41488 77.1939 6.8208 77.1939 5.99845C77.1961 5.69139 77.1655 5.38484 77.1024 5.08298C77.0505 4.82395 76.954 4.57362 76.8164 4.34086C76.6951 4.1405 76.5181 3.9713 76.3024 3.84946C75.9762 3.68371 75.5928 3.63138 75.226 3.70252C74.8592 3.77367 74.5348 3.96326 74.3153 4.23485C74.0336 4.60638 73.8928 5.19569 73.8928 6.00275L73.8896 5.99845Z" fill="white"/>
<path d="M80.0789 2.62777C80.2299 2.60866 80.4007 2.59243 80.5913 2.57905C80.782 2.56568 80.9785 2.55613 81.1809 2.5504C81.3822 2.54372 81.5787 2.53894 81.7704 2.53607H82.2828C82.8658 2.52259 83.4466 2.60616 83.9952 2.78249C84.4389 2.93003 84.8358 3.17142 85.1518 3.48593C85.4518 3.79936 85.6711 4.16759 85.7944 4.56473C85.936 5.01308 86.0053 5.47716 86 5.94295C86.0015 6.38854 85.9361 6.83231 85.8056 7.26244C85.6842 7.6749 85.4651 8.05937 85.1631 8.38995C84.839 8.73187 84.4305 9.00209 83.9695 9.17934C83.3897 9.39346 82.7656 9.49551 82.1383 9.47877C82.0226 9.47877 81.87 9.47877 81.6788 9.46874L81.0845 9.44439L80.4966 9.41573C80.3091 9.40618 80.1689 9.3952 80.0757 9.38278L80.0789 2.62777ZM82.4065 3.70656C82.248 3.70656 82.0874 3.70991 81.9246 3.71659C81.8036 3.71951 81.6829 3.72908 81.5632 3.74524V8.26387C81.6114 8.2724 81.6603 8.27719 81.7094 8.2782L81.931 8.28823L82.1575 8.29825H82.3182C82.6775 8.30906 83.0344 8.24118 83.3575 8.10055C83.6234 7.97788 83.8501 7.79695 84.0161 7.57476C84.1836 7.34469 84.2992 7.08777 84.3567 6.81831C84.4216 6.52821 84.4539 6.23305 84.453 5.93722C84.4539 5.66945 84.426 5.40222 84.3695 5.13923C84.3158 4.88405 84.2067 4.64071 84.0482 4.42289C83.8876 4.20639 83.6704 4.02793 83.4153 3.90284C83.1036 3.7611 82.7561 3.6935 82.4065 3.70656Z" fill="white"/>
</svg>
