<svg width="43" height="58" viewBox="0 0 43 58" fill="none" xmlns="http://www.w3.org/2000/svg">
<path d="M21.3521 0C9.57912 0 0 9.57912 0 21.3533C0 24.4244 0.628596 27.3567 1.86739 30.0693C7.20601 41.7515 17.4416 54.0854 20.4522 57.5869C20.6778 57.8487 21.0066 57.9994 21.3527 57.9994C21.6987 57.9994 22.0276 57.8487 22.2531 57.5869C25.2626 54.086 35.4982 41.7527 40.8386 30.0693C42.078 27.3567 42.706 24.4244 42.706 21.3533C42.7048 9.57912 33.1257 0 21.3521 0ZM21.3521 32.4442C15.2365 32.4442 10.2605 27.4683 10.2605 21.3527C10.2605 15.2365 15.2365 10.2605 21.3521 10.2605C27.4677 10.2605 32.4436 15.2365 32.4436 21.3527C32.4442 27.4683 27.4683 32.4442 21.3521 32.4442Z" fill="#415BA5"/>
</svg>
